{
	"info": {
		"_postman_id": "6398dad9-8558-4382-8d41-ce4d72db6bcb",
		"name": "Insurance",
		"schema": "https://schema.getpostman.com/json/collection/v2.1.0/collection.json"
	},
	"item": [
		{
			"name": "Quote",
			"item": [
				{
					"name": "Discard",
					"request": {
						"auth": {
							"type": "basic",
							"basic": [
								{
									"key": "password",
									"value": "server",
									"type": "string"
								},
								{
									"key": "username",
									"value": "servant",
									"type": "string"
								}
							]
						},
						"method": "POST",
						"header": [],
						"url": {
							"raw": "localhost:8080/pendingquotes/discard/2c535835-3308-4d3c-be56-9aee8e009136",
							"host": [
								"localhost"
							],
							"port": "8080",
							"path": [
								"pendingquotes",
								"discard",
								"2c535835-3308-4d3c-be56-9aee8e009136"
							]
						}
					},
					"response": [
						{
							"name": "Discard",
							"originalRequest": {
								"method": "POST",
								"header": [],
								"url": {
									"raw": "localhost:8080/pendingquotes/discard/2c535835-3308-4d3c-be56-9aee8e009136",
									"host": [
										"localhost"
									],
									"port": "8080",
									"path": [
										"pendingquotes",
										"discard",
										"2c535835-3308-4d3c-be56-9aee8e009136"
									]
								}
							},
							"_postman_previewlanguage": null,
							"header": null,
							"cookie": [],
							"body": null
						}
					]
				},
				{
					"name": "Accept",
					"request": {
						"auth": {
							"type": "basic",
							"basic": [
								{
									"key": "password",
									"value": "server",
									"type": "string"
								},
								{
									"key": "username",
									"value": "servant",
									"type": "string"
								}
							]
						},
						"method": "POST",
						"header": [],
						"url": {
							"raw": "localhost:8080/pendingquotes/accept/8408e9ce-d462-4cc3-a98e-e41832f34560",
							"host": [
								"localhost"
							],
							"port": "8080",
							"path": [
								"pendingquotes",
								"accept",
								"8408e9ce-d462-4cc3-a98e-e41832f34560"
							]
						}
					},
					"response": [
						{
							"name": "Accept",
							"originalRequest": {
								"method": "POST",
								"header": [],
								"url": {
									"raw": "localhost:8080/pendingquotes/accept/8408e9ce-d462-4cc3-a98e-e41832f34560",
									"host": [
										"localhost"
									],
									"port": "8080",
									"path": [
										"pendingquotes",
										"accept",
										"8408e9ce-d462-4cc3-a98e-e41832f34560"
									]
								}
							},
							"_postman_previewlanguage": null,
							"header": null,
							"cookie": [],
							"body": null
						}
					]
				},
				{
					"name": "Generate",
					"request": {
						"method": "POST",
						"header": [],
						"body": {
							"mode": "raw",
							"raw": "{\n    \"applicantName\": \"Kalle Svensson\",\n    \"startDate\": \"2012-11-12\",\n    \"endDate\" : \"2034-11-12\",\n    \"itemPrice\" : 100\n}",
							"options": {
								"raw": {
									"language": "json"
								}
							}
						},
						"url": {
							"raw": "localhost:8080/pendingquotes/generate",
							"host": [
								"localhost"
							],
							"port": "8080",
							"path": [
								"pendingquotes",
								"generate"
							]
						}
					},
					"response": [
						{
							"name": "Generate",
							"originalRequest": {
								"method": "POST",
								"header": [],
								"body": {
									"mode": "raw",
									"raw": "{\n    \"applicantName\": \"Kalle Svensson\",\n    \"startDate\": \"2012-11-12\",\n    \"endDate\" : \"2034-11-12\",\n    \"itemPrice\" : 100\n}",
									"options": {
										"raw": {
											"language": "json"
										}
									}
								},
								"url": {
									"raw": "localhost:8080/pendingquotes/generate",
									"host": [
										"localhost"
									],
									"port": "8080",
									"path": [
										"pendingquotes",
										"generate"
									]
								}
							},
							"_postman_previewlanguage": null,
							"header": null,
							"cookie": [],
							"body": null
						}
					]
				}
			]
		},
		{
			"name": "Insurance policy",
			"request": {
				"auth": {
					"type": "basic",
					"basic": [
						{
							"key": "password",
							"value": "server",
							"type": "string"
						},
						{
							"key": "username",
							"value": "servant",
							"type": "string"
						}
					]
				},
				"method": "GET",
				"header": [],
				"url": {
					"raw": "localhost:8080/insurancepolicy/4d1aab93-0b8a-4e9f-8fcb-58a3b23cfd86",
					"host": [
						"localhost"
					],
					"port": "8080",
					"path": [
						"insurancepolicy",
						"4d1aab93-0b8a-4e9f-8fcb-58a3b23cfd86"
					]
				}
			},
			"response": [
				{
					"name": "Insurance policy",
					"originalRequest": {
						"method": "GET",
						"header": [],
						"url": {
							"raw": "localhost:8080/insurancepolicy/4d1aab93-0b8a-4e9f-8fcb-58a3b23cfd86",
							"host": [
								"localhost"
							],
							"port": "8080",
							"path": [
								"insurancepolicy",
								"4d1aab93-0b8a-4e9f-8fcb-58a3b23cfd86"
							]
						}
					},
					"_postman_previewlanguage": null,
					"header": null,
					"cookie": [],
					"body": null
				}
			]
		}
	]
}